Division,WeightClassKg,Place,Name,Team,BodyweightKg,Best3SquatKg,Best3BenchKg,Best3DeadliftKg,TotalKg,Equipment,Event,Sex
Boys,51.71,1,Edward Hernandez,Eldorado,50.8,158.76,72.57,147.42,378.75,Single-ply,SBD,M
Boys,51.71,2,Rico Rodriguez,Sonora,47.54,86.18,52.16,95.25,233.6,Single-ply,SBD,M
Boys,51.71,3,Jonathan Estes,San Angelo Grape Creek,49.08,43.09,34.02,81.65,158.76,Single-ply,SBD,M
Boys,55.79,1,Gunnar McNeill,San Angelo Grape Creek,54.16,127.01,61.23,142.88,331.12,Single-ply,SBD,M
Boys,55.79,2,Gus Barrera,Sonora,53.52,88.45,52.16,104.33,244.94,Single-ply,SBD,M
Boys,55.79,DQ,Jesse Ramirez #2,San Angelo Lake View,54.7,,,,,Single-ply,SBD,M
Boys,59.87,1,Mario Manquero,Garden City,58.51,136.08,81.65,149.69,367.41,Single-ply,SBD,M
Boys,59.87,2,Aaron Kelly,San Angelo Grape Creek,59.42,122.47,77.11,149.69,349.27,Single-ply,SBD,M
Boys,59.87,3,Will Dutton,Sonora,57.88,127.01,72.57,142.88,342.46,Single-ply,SBD,M
Boys,59.87,4,Taylor White,San Angelo Grape Creek,58.06,117.93,65.77,127.01,310.71,Single-ply,SBD,M
Boys,59.87,5,Leo Galindo,Crane,59.51,111.13,61.23,117.93,290.3,Single-ply,SBD,M
Boys,59.87,6,Dub Latham,Sonora,59.24,92.99,70.31,122.47,285.76,Single-ply,SBD,M
Boys,59.87,7,Danny Muro,San Angelo Lake View,58.15,95.25,56.7,124.74,276.69,Single-ply,SBD,M
Boys,67.13,1,Edward Garza,Sonora,61.69,208.65,127.01,185.97,521.63,Single-ply,SBD,M
Boys,67.13,2,John Hernandez,San Angelo Lake View,66.13,167.83,99.79,199.58,467.2,Single-ply,SBD,M
Boys,67.13,3,Jesus Vasquez,Sonora,66.32,165.56,95.25,165.56,426.38,Single-ply,SBD,M
Boys,67.13,4,Cody Ortiz,Big Lake Reagan County,67.13,163.29,90.72,163.29,417.3,Single-ply,SBD,M
Boys,67.13,5,Colton Belew,Garden City,66.95,154.22,83.91,136.08,374.21,Single-ply,SBD,M
Boys,74.84,6,Matthew Johnson #9,Miles,67.22,124.74,95.25,142.88,362.87,Single-ply,SBD,M
Boys,67.13,7,Mason Shoemaker,San Angelo Grape Creek,65.59,122.47,63.5,149.69,335.66,Single-ply,SBD,M
Boys,67.13,8,Jared Trubenstein,San Angelo Lake View,66.41,117.93,70.31,136.08,324.32,Single-ply,SBD,M
Boys,67.13,9,Ricky Beardslee,Crane,66.68,106.59,56.7,117.93,281.23,Single-ply,SBD,M
Boys,67.13,DQ,Angel Moreno,San Angelo Lake View,65.86,176.9,,,,Single-ply,SBD,M
Boys,74.84,DQ,Jose Armendariz,San Angelo Grape Creek,67.22,149.69,72.57,,,Single-ply,SBD,M
Boys,67.13,DQ,Victor Muro,San Angelo Lake View,63.32,,,,,Single-ply,SBD,M
Boys,67.13,DQ,Ryan Hurst,San Angelo Grape Creek,63.59,192.78,81.65,,,Single-ply,SBD,M
Boys,74.84,1,Jaime Ortiz #1,Crane,73.03,208.65,129.27,192.78,530.7,Single-ply,SBD,M
Boys,74.84,2,Aaron Castillo,Rankin,73.21,167.83,122.47,188.24,478.54,Single-ply,SBD,M
Boys,74.84,3,Caleb Saldavar,San Angelo Grape Creek,69.49,170.1,92.99,195.04,458.13,Single-ply,SBD,M
Boys,74.84,4,Brett Castillo,Sonora,71.12,161.03,83.91,183.7,428.64,Single-ply,SBD,M
Boys,74.84,5,Caleb Drake,San Angelo Lake View,67.59,142.88,83.91,167.83,394.63,Single-ply,SBD,M
Boys,74.84,6,Brody Halfmann,Garden City,70.49,145.15,83.91,165.56,394.63,Single-ply,SBD,M
Boys,74.84,7,Juan Bustos,Garden City,68.95,138.35,77.11,163.29,378.75,Single-ply,SBD,M
Boys,74.84,8,Chapman Royall,Garden City,73.3,129.27,83.91,165.56,378.75,Single-ply,SBD,M
Boys,74.84,9,Jose Longoria,Sonora,73.94,124.74,95.25,136.08,356.07,Single-ply,SBD,M
Boys,82.1,10,Kevin O'Dell,San Angelo Grape Creek,75.07,129.27,74.84,145.15,349.27,Single-ply,SBD,M
Boys,82.1,11,Spencer Frost,Midland Classical Academy,75.02,111.13,72.57,120.2,303.91,Single-ply,SBD,M
Boys,74.84,DQ,Trenton Gardner,Big Lake Reagan County,74.39,,,,,Single-ply,SBD,M
Boys,82.1,1,Fernando Saucedo,Big Lake Reagan County,75.52,195.04,90.72,192.78,478.54,Single-ply,SBD,M
Boys,82.1,2,Maurico Valdez,San Angelo Lake View,76.84,181.44,99.79,179.17,460.4,Single-ply,SBD,M
Boys,82.1,3,Caden Glass,Miles,82.01,154.22,115.67,163.29,433.18,Single-ply,SBD,M
Boys,82.1,4,Tyler Barron,Midland Classical Academy,81.74,151.95,88.45,167.83,408.23,Single-ply,SBD,M
Boys,82.1,5,Cole Schwertner,Miles,76.66,142.88,111.13,147.42,401.43,Single-ply,SBD,M
Boys,82.1,6,Adrian Revell,San Angelo Grape Creek,76.02,142.88,88.45,151.95,383.29,Single-ply,SBD,M
Boys,82.1,7,Cody Phillips,Rankin,76.84,113.4,68.04,136.08,317.51,Single-ply,SBD,M
Boys,82.1,8,Erasmo Esquivel,Sonora,75.93,108.86,77.11,120.2,306.17,Single-ply,SBD,M
Boys,82.1,DQ,Victor Carrasco,Big Lake Reagan County,78.11,181.44,,,,Single-ply,SBD,M
Boys,89.81,1,Marcos Rodarte,San Angelo Grape Creek,88.81,226.8,102.06,224.53,553.38,Single-ply,SBD,M
Boys,89.81,2,Ryan Thomas,Rankin,88.54,204.12,133.81,208.65,546.58,Single-ply,SBD,M
Boys,89.81,3,Shawn Walker,Garden City,85.18,167.83,122.47,181.44,471.74,Single-ply,SBD,M
Boys,89.81,4,Hector Reyes,Eldorado,85.64,183.7,90.72,183.7,458.13,Single-ply,SBD,M
Boys,89.81,5,Carlos Gomez,Iraan,83.28,170.1,106.59,172.37,449.06,Single-ply,SBD,M
Boys,89.81,6,Kevin Revell,San Angelo Grape Creek,83.01,145.15,90.72,185.97,421.84,Single-ply,SBD,M
Boys,89.81,7,Andres Acevedo,Sonora,84.01,154.22,72.57,185.97,412.77,Single-ply,SBD,M
Boys,89.81,8,Efren Rodriguez,San Angelo Grape Creek,83.91,151.95,95.25,163.29,410.5,Single-ply,SBD,M
Boys,89.81,9,Daniel Fu,Midland Classical Academy,85.28,145.15,81.65,147.42,374.21,Single-ply,SBD,M
Boys,89.81,DQ,Wesley Hamon,San Angelo Grape Creek,89.63,138.35,,,,Single-ply,SBD,M
Boys,89.81,DQ,Mark Flores,Crane,82.55,,,,,Single-ply,SBD,M
Boys,99.79,1,Aaron Allen #2,San Angelo Lake View,99.79,249.48,127.01,263.08,639.57,Single-ply,SBD,M
Boys,99.79,2,Elijah Cross,Sonora,92.9,167.83,102.06,181.44,451.32,Single-ply,SBD,M
Boys,99.79,3,Alejandro Dominguez,Eldorado,97.52,147.42,92.99,204.12,444.52,Single-ply,SBD,M
Boys,99.79,4,Cody Stephens,Crane,92.08,154.22,106.59,165.56,426.38,Single-ply,SBD,M
Boys,99.79,5,Andrew Hicks,Garden City,93.35,133.81,92.99,158.76,385.55,Single-ply,SBD,M
Boys,99.79,6,Lionel Deleon,Sonora,93.44,136.08,72.57,151.95,360.61,Single-ply,SBD,M
Boys,99.79,7,Nathan Hill,Rankin,95.35,136.08,74.84,124.74,335.66,Single-ply,SBD,M
Boys,124.74,1,Angel Aguilera,Big Lake Reagan County,113.85,251.74,122.47,217.72,591.94,Single-ply,SBD,M
Boys,124.74,2,Christian Delgado,San Angelo Lake View,122.56,204.12,122.47,183.7,510.29,Single-ply,SBD,M
Boys,124.74+,1,Bowdy Thompson,San Angelo Lake View,163.38,272.16,158.76,244.94,675.85,Single-ply,SBD,M
Boys,124.74+,2,Caleb Wrinkle,Rankin,128,195.04,131.54,222.26,548.85,Single-ply,SBD,M
Boys,124.74+,3,Dj Schlather,San Angelo Lake View,132.9,206.38,122.47,181.44,510.29,Single-ply,SBD,M
