Division,WeightClassKg,Place,Name,Team,BodyweightKg,Best3SquatKg,Best3BenchKg,Best3DeadliftKg,TotalKg,Equipment,Event,Sex,BirthDate
Boys,51.71,1,Dashel Burrows,Sharyland Pioneer,51.48,151.95,92.99,156.49,401.43,Unlimited,SBD,M,
Boys,51.71,2,Joe Cruz,Edinburg North,51.62,124.74,86.18,183.7,394.63,Unlimited,SBD,M,
Boys,51.71,3,Carlos Cantu,McAllen Memorial,48.58,142.88,88.45,158.76,390.09,Unlimited,SBD,M,
Boys,51.71,4,Christopher Martinez,Mission,46.54,117.93,79.38,136.08,333.39,Unlimited,SBD,M,
Boys,51.71,5,Andrew Arechar,Edinburg,49.31,115.67,68.04,142.88,326.59,Unlimited,SBD,M,
Boys,51.71,6,Alan Coyote,La Joya,48.53,102.06,63.5,124.74,290.3,Unlimited,SBD,M,
Boys,51.71,7,Cristian Salinas,Edinburg,51.71,113.4,56.7,120.2,290.3,Unlimited,SBD,M,
Boys,51.71,DQ,Gabriel Guzman,Mission Sharyland,51.44,,,,,Unlimited,SBD,M,
Boys,55.79,1,Cesar Canche,La Joya Palmview,55.16,133.81,77.11,174.63,385.55,Unlimited,SBD,M,
Boys,55.79,2,Angel Escandon,Edinburg,54.57,136.08,88.45,156.49,381.02,Unlimited,SBD,M,
Boys,55.79,3,Miguel Casanova,Edinburg,53.57,138.35,72.57,142.88,353.8,Unlimited,SBD,M,
Boys,55.79,4,Christian Cortez,Edinburg,53.98,131.54,72.57,147.42,351.53,Unlimited,SBD,M,
Boys,55.79,5,Adrian Valadez,Edinburg North,53.12,120.2,86.18,142.88,349.27,Unlimited,SBD,M,
Boys,55.79,DQ,Josue Resendez,Rio Grande City Grulla,52.3,102.06,,,,Unlimited,SBD,M,
Boys,59.87,1,Rick Reyna,McAllen Memorial,59.19,215.46,106.59,226.8,548.85,Unlimited,SBD,M,
Boys,59.87,2,Darrius Capetillo,McAllen Memorial,58.6,183.7,83.91,170.1,437.72,Unlimited,SBD,M,
Boys,59.87,3,Lucien Martinez,Mission Sharyland,58.24,172.37,83.91,172.37,428.64,Unlimited,SBD,M,
Boys,59.87,4,Dionicio Gutierrez,Mission Veterans Memorial,59.83,161.03,106.59,158.76,426.38,Unlimited,SBD,M,
Boys,59.87,5,Melvin Sandoval,La Joya,59.42,140.61,83.91,170.1,394.63,Unlimited,SBD,M,
Boys,59.87,6,Jonathan Vasquez,Edinburg,58.65,151.95,92.99,142.88,387.82,Unlimited,SBD,M,
Boys,59.87,7,Jose Saenz,Mission Sharyland,58.51,115.67,74.84,124.74,315.25,Unlimited,SBD,M,
Boys,59.87,DQ,Matthew Sanchez,Mission Veterans Memorial,58.92,,,,,Unlimited,SBD,M,
Boys,59.87,DQ,Christopher Laboy,Mission,59.42,92.99,,,,Unlimited,SBD,M,
Boys,67.13,1,Diego Mercado,McAllen Rowe,64.68,238.14,170.1,204.12,612.35,Unlimited,SBD,M,
Boys,67.13,2,Tristen Moreno,Edinburg North,66.86,219.99,129.27,219.99,569.26,Unlimited,SBD,M,
Boys,67.13,3,Julius Molina,Edinburg North,66.36,215.46,115.67,206.38,537.51,Unlimited,SBD,M,
Boys,67.13,4,Orlando Torres,Edinburg North,65.45,210.92,120.2,195.04,526.17,Unlimited,SBD,M,
Boys,67.13,5,Isaiah Casas,Mission Veterans Memorial,64.64,172.37,145.15,172.37,489.88,Unlimited,SBD,M,
Boys,67.13,6,Sebastian Islas,McAllen Rowe,61.87,170.1,108.86,188.24,467.2,Unlimited,SBD,M,
Boys,67.13,7,Damian Hernandez,Sharyland Pioneer,67.04,176.9,108.86,161.03,446.79,Unlimited,SBD,M,
Boys,67.13,8,Adrian Esparza,Sharyland Pioneer,67.13,176.9,106.59,142.88,426.38,Unlimited,SBD,M,
Boys,67.13,9,Julian Harnandez,Edinburg North,60.78,156.49,99.79,151.95,408.23,Unlimited,SBD,M,
Boys,67.13,10,Rosbel Lopez,Rio Grande City Grulla,63.73,142.88,81.65,149.69,374.21,Unlimited,SBD,M,
Boys,67.13,11,Edrik Rodriguez,Mission Sharyland,62.46,129.27,79.38,145.15,353.8,Unlimited,SBD,M,
Boys,67.13,12,Anthony Alvarez,La Joya,66.32,122.47,70.31,151.95,344.73,Unlimited,SBD,M,
Boys,67.13,13,Angel Tovar,La Joya,62.69,115.67,74.84,151.95,342.46,Unlimited,SBD,M,
Boys,67.13,14,Jose Gonzalez #28,La Joya Palmview,63.05,45.36,36.29,68.04,149.69,Unlimited,SBD,M,
Boys,67.13,DQ,Elias Mayorga,Mission Veterans Memorial,64.68,172.37,,,,Unlimited,SBD,M,
Boys,67.13,DQ,Matthew Esparza,Sharyland Pioneer,64,156.49,,,,Unlimited,SBD,M,
Boys,74.84,1,Devin Aguilar,Edinburg North,74.57,272.16,172.37,244.94,689.46,Unlimited,SBD,M,
Boys,74.84,2,Armando Chapa,La Joya Palmview,73.62,249.48,142.88,226.8,619.15,Unlimited,SBD,M,
Boys,74.84,3,Jaidan Alaniz,La Joya,72.8,247.21,124.74,229.06,601.01,Unlimited,SBD,M,
Boys,74.84,4,Anthony Little,McAllen Memorial,73.21,235.87,124.74,233.6,594.21,Unlimited,SBD,M,
Boys,74.84,5,Juan Sanchez,Edinburg North,74.34,226.8,113.4,242.67,582.87,Unlimited,SBD,M,
Boys,74.84,6,Damian Villalpando,La Joya,68.72,226.8,124.74,215.46,566.99,Unlimited,SBD,M,
Boys,74.84,7,Adan Ramirez,McAllen Rowe,70.17,206.38,138.35,206.38,551.11,Unlimited,SBD,M,
Boys,74.84,8,Jacob Faz,Edinburg North,73.53,204.12,111.13,219.99,535.24,Unlimited,SBD,M,
Boys,74.84,9,Adam Rocha,Sharyland Pioneer,73.48,183.7,111.13,215.46,510.29,Unlimited,SBD,M,
Boys,74.84,10,Joseph Padron,Mission Sharyland,70.35,199.58,122.47,183.7,505.76,Unlimited,SBD,M,
Boys,74.84,11,Eduardo Garza,Mission,74.12,188.24,127.01,183.7,498.95,Unlimited,SBD,M,
Boys,74.84,12,Eric Adrian,McAllen Memorial,73.3,192.78,106.59,174.63,474,Unlimited,SBD,M,
Boys,74.84,13,Iban Ramirez,McAllen Rowe,69.4,192.78,92.99,170.1,455.86,Unlimited,SBD,M,
Boys,74.84,14,Aldo Martinez,Brownsville Lopez,73.26,149.69,88.45,151.95,390.09,Unlimited,SBD,M,
Boys,74.84,15,Brandon Hernandez,Brownsville Lopez,67.95,142.88,83.91,142.88,369.68,Unlimited,SBD,M,
Boys,74.84,16,Michael Pena,Sharyland Pioneer,71.35,136.08,83.91,149.69,369.68,Unlimited,SBD,M,
Boys,74.84,17,David Solis,Mission Sharyland,74.39,131.54,83.91,142.88,358.34,Unlimited,SBD,M,
Boys,74.84,18,Jose Morales,Rio Grande City,70.4,115.67,95.25,120.2,331.12,Unlimited,SBD,M,
Boys,74.84,DQ,Victor Hernandez,Rio Grande City Grulla,69.9,208.65,129.27,,,Unlimited,SBD,M,
Boys,74.84,DQ,Nicolas Moreno Reyes,Mission Sharyland,74.62,,,,,Unlimited,SBD,M,
Boys,74.84,DQ,Joshua Tanguma,Mission Sharyland,67.86,170.1,,,,Unlimited,SBD,M,
Boys,74.84,DQ,Jose Tienda,Mission Veterans Memorial,74.3,165.56,,,,Unlimited,SBD,M,
Boys,74.84,DQ,Kalel De Leon,Mission Veterans Memorial,69.81,172.37,,,,Unlimited,SBD,M,
Boys,82.1,1,Angel Chapa,La Joya Palmview,81.19,265.35,154.22,226.8,646.37,Unlimited,SBD,M,
Boys,82.1,2,Marcelo Cantu,Mission Veterans Memorial,79.7,251.74,142.88,217.72,612.35,Unlimited,SBD,M,
Boys,82.1,3,Eusebio Garcia,Rio Grande City,80.01,226.8,151.95,226.8,605.55,Unlimited,SBD,M,
Boys,82.1,4,Joshua Rosales,Edinburg North,78.83,192.78,124.74,197.31,514.83,Unlimited,SBD,M,
Boys,82.1,5,Albert Gamez,Edinburg,80.33,197.31,133.81,183.7,514.83,Unlimited,SBD,M,
Boys,82.1,6,Diego Reyes-Sanchez,McAllen Rowe,81.15,213.19,124.74,174.63,512.56,Unlimited,SBD,M,
Boys,82.1,7,Ismael Garza,La Joya,77.16,192.78,102.06,204.12,498.95,Unlimited,SBD,M,
Boys,82.1,8,Axel Ledezma,La Joya,76.84,199.58,97.52,185.97,483.08,Unlimited,SBD,M,
Boys,82.1,9,Jayson Navarro,Mission Veterans Memorial,77.16,158.76,117.93,142.88,419.57,Unlimited,SBD,M,
Boys,82.1,DQ,Roberto Salinas,La Joya Palmview,76.07,124.74,,,,Unlimited,SBD,M,
Boys,82.1,DQ,Brandon Castillo,Brownsville Lopez,80.15,147.42,,,,Unlimited,SBD,M,
Boys,89.81,1,Rafael Aguirre,Edinburg North,86.27,263.08,163.29,238.14,664.51,Unlimited,SBD,M,
Boys,89.81,2,Aiden Trevino,Edinburg North,88.68,226.8,151.95,190.51,569.26,Unlimited,SBD,M,
Boys,89.81,3,Aaron Benavidez,Rio Grande City,86.18,217.72,106.59,242.67,566.99,Unlimited,SBD,M,
Boys,89.81,4,Samuel Mata,Sharyland Pioneer,88.68,215.46,136.08,213.19,564.72,Unlimited,SBD,M,
Boys,89.81,5,Seth Hernandez,Edinburg,88.09,208.65,145.15,208.65,562.45,Unlimited,SBD,M,
Boys,89.81,6,Darren Molina,Rio Grande City,88.36,201.85,142.88,195.04,539.77,Unlimited,SBD,M,
Boys,89.81,7,Eloy Garcia,La Joya Palmview,89.77,201.85,124.74,190.51,517.1,Unlimited,SBD,M,
Boys,89.81,8,Devin Torres,Mission,88.45,181.44,102.06,204.12,487.61,Unlimited,SBD,M,
Boys,89.81,9,Andre Zambrano,La Joya,84.46,183.7,113.4,183.7,480.81,Unlimited,SBD,M,
Boys,89.81,10,John Salinas,Rio Grande City,84.01,170.1,111.13,185.97,467.2,Unlimited,SBD,M,
Boys,89.81,11,Anthony Reyes,La Joya,88.09,156.49,122.47,165.56,444.52,Unlimited,SBD,M,
Boys,89.81,DQ,Abraham Gutierrez,McAllen Rowe,87.68,197.31,,,,Unlimited,SBD,M,
Boys,99.79,1,Alan Hernandez,Edinburg,98.57,240.4,145.15,265.35,650.91,Unlimited,SBD,M,
Boys,99.79,2,Patricio Garcia-Quiroz,McAllen Rowe,91.44,231.33,167.83,219.99,619.15,Unlimited,SBD,M,
Boys,99.79,3,Luis Sanchez,La Joya,98.97,265.35,142.88,183.7,591.94,Unlimited,SBD,M,
Boys,99.79,4,Pablo Solis,Rio Grande City,91.63,215.46,122.47,238.14,576.06,Unlimited,SBD,M,
Boys,99.79,5,Chris Deleon,Sharyland Pioneer,98.11,219.99,140.61,208.65,569.26,Unlimited,SBD,M,
Boys,99.79,6,Pablo Gonzalez,Edinburg,94.94,190.51,151.95,183.7,526.17,Unlimited,SBD,M,
Boys,99.79,7,Jaiden De Leon,McAllen Rowe,95.03,192.78,147.42,185.97,526.17,Unlimited,SBD,M,
Boys,99.79,8,Deven Becerra,Rio Grande City Grulla,91.63,208.65,122.47,170.1,501.22,Unlimited,SBD,M,
Boys,99.79,9,Omar Calderon,La Joya Palmview,92.08,188.24,115.67,192.78,496.68,Unlimited,SBD,M,
Boys,99.79,10,Eduardo Martinez,Mission,92.49,154.22,106.59,158.76,419.57,Unlimited,SBD,M,
Boys,99.79,11,Pedro De La Garza,Rio Grande City,90.17,145.15,92.99,161.03,399.16,Unlimited,SBD,M,
Boys,99.79,12,Martin Montoya,Brownsville Lopez,93.85,138.35,79.38,142.88,360.61,Unlimited,SBD,M,
Boys,99.79,13,Emmanuel Lopez,Rio Grande City,99.02,140.61,88.45,117.93,347,Unlimited,SBD,M,
Boys,99.79,DQ,Refugio Mariscal,Edinburg,98.84,208.65,,,,Unlimited,SBD,M,
Boys,109.77,1,Ariel Segura,Edinburg,106.1,265.35,204.12,263.08,732.55,Unlimited,SBD,M,
Boys,109.77,2,Jesus Ortiz,Rio Grande City,108.5,235.87,151.95,240.4,628.23,Unlimited,SBD,M,
Boys,109.77,3,Jozef Baldado,Mission Sharyland,100.11,256.28,149.69,210.92,616.89,Unlimited,SBD,M,
Boys,109.77,4,Alejandro Rodriguez,McAllen Rowe,103.24,233.6,149.69,185.97,569.26,Unlimited,SBD,M,
Boys,109.77,5,Domingo Villarreal,Mission,108.95,199.58,158.76,210.92,569.26,Unlimited,SBD,M,
Boys,109.77,6,Aaron Olivarez,Sharyland Pioneer,107.77,219.99,136.08,192.78,548.85,Unlimited,SBD,M,
Boys,109.77,7,Chris Balderas,McAllen Rowe,109.32,199.58,127.01,185.97,512.56,Unlimited,SBD,M,
Boys,109.77,8,Luis Delgado,Sharyland Pioneer,108.36,172.37,124.74,172.37,469.47,Unlimited,SBD,M,
Boys,109.77,9,Kevin Martínez,Brownsville Lopez,104.92,158.76,104.33,140.61,403.7,Unlimited,SBD,M,
Boys,124.74,1,Carlos Rodriguez,McAllen Memorial,122.65,317.51,213.19,272.16,802.86,Unlimited,SBD,M,
Boys,124.74,2,Jason Escobar,McAllen Memorial,123.69,288.03,204.12,235.87,728.02,Unlimited,SBD,M,
Boys,124.74,3,Demetrio Talamantes,McAllen Rowe,110.95,226.8,151.95,192.78,571.53,Unlimited,SBD,M,
Boys,124.74,4,Christian Enriquez,Rio Grande City Grulla,116.44,210.92,131.54,183.7,526.17,Unlimited,SBD,M,
Boys,124.74,5,Angel Hernandez,Brownsville Lopez,119.66,183.7,104.33,176.9,464.93,Unlimited,SBD,M,
Boys,124.74,6,Damasio Almaguer,La Joya Palmview,121.97,197.31,120.2,147.42,464.93,Unlimited,SBD,M,
Boys,124.74,7,Jose Cordova,La Joya Palmview,124.06,142.88,106.59,161.03,410.5,Unlimited,SBD,M,
Boys,124.74,8,Juaqin Ledezma,Brownsville Lopez,111.67,138.35,97.52,154.22,390.09,Unlimited,SBD,M,
Boys,124.74,DQ,Derrin Borrego,Rio Grande City,124.33,206.38,,,,Unlimited,SBD,M,
Boys,139.71,1,Christopher Morales,Rio Grande City,134.67,306.17,165.56,226.8,698.53,Unlimited,SBD,M,
Boys,139.71,2,Ethan Hinojosa,Sharyland Pioneer,125.69,219.99,145.15,201.85,566.99,Unlimited,SBD,M,
Boys,139.71,3,Johnny Becerra,Rio Grande City Grulla,134.72,235.87,147.42,179.17,562.45,Unlimited,SBD,M,
Boys,139.71+,1,Adalberto Sanchez,Sharyland Pioneer,148.14,294.84,181.44,226.8,703.07,Unlimited,SBD,M,
Boys,139.71+,2,Lizandro Garcia,Rio Grande City Grulla,142.52,242.67,142.88,183.7,569.26,Unlimited,SBD,M,
Boys,139.71+,3,Michael Rivera,La Joya Palmview,140.48,140.61,102.06,147.42,390.09,Unlimited,SBD,M,
