Division,WeightClassKg,Place,Name,Team,BodyweightKg,Best3SquatKg,Best3BenchKg,Best3DeadliftKg,TotalKg,Equipment,Event,Sex,BirthDate
Girls,44.23,1,Yaritza Gonzalez,Roma,42.09,90.72,47.63,90.72,229.06,Single-ply,SBD,F,
Girls,44.23,2,Adelyda Maldonado,Edinburg Economedes,44.18,72.57,45.36,83.91,201.85,Single-ply,SBD,F,
Girls,47.85,1,Aileen Garza,Roma,46.81,104.33,45.36,117.93,267.62,Single-ply,SBD,F,
Girls,47.85,2,Bella Villarreal,Edinburg,46.36,83.91,38.56,104.33,226.8,Single-ply,SBD,F,
Girls,51.94,1,Brianna Flores,Edinburg Economedes,50.8,129.27,83.91,115.67,328.85,Single-ply,SBD,F,
Girls,51.94,2,Faith Gonzalez,Edinburg Economedes,50.89,104.33,63.5,122.47,290.3,Single-ply,SBD,F,
Girls,51.94,3,Alicia Ramos,Edinburg Vela,50.71,111.13,49.9,124.74,285.76,Single-ply,SBD,F,
Girls,51.94,4,Sandra Velasquez,Edinburg,49.8,111.13,49.9,111.13,272.16,Single-ply,SBD,F,
Girls,51.94,5,Yoselin Alvarez Perez,Edinburg,49.8,95.25,56.7,115.67,267.62,Single-ply,SBD,F,
Girls,51.94,6,Jimena Quintanilla,Edinburg Vela,51.71,104.33,45.36,95.25,244.94,Single-ply,SBD,F,
Girls,51.94,7,Emily Romero,Edinburg North,50.71,72.57,40.82,81.65,195.04,Single-ply,SBD,F,
Girls,51.94,8,Marlena Torres,Edinburg North,49.9,63.5,36.29,81.65,181.44,Single-ply,SBD,F,
Girls,56.02,1,Karla Acuna,Edinburg,54.43,122.47,54.43,129.27,306.17,Single-ply,SBD,F,
Girls,56.02,2,Bryanna Marroquin,Edinburg North,54.79,115.67,70.31,120.2,306.17,Single-ply,SBD,F,
Girls,56.02,3,Summer Garcia,Edinburg North,52.89,102.06,63.5,108.86,274.42,Single-ply,SBD,F,
Girls,56.02,4,Jennifer Rios,Rio Grande City,54.61,106.59,54.43,111.13,272.16,Single-ply,SBD,F,
Girls,56.02,5,Samantha Ramírez,Roma,54.79,106.59,45.36,99.79,251.74,Single-ply,SBD,F,
Girls,56.02,6,Darianna Gonzalez,Edinburg Vela,54.07,102.06,43.09,102.06,247.21,Single-ply,SBD,F,
Girls,56.02,7,Emilee Perez,Edinburg Vela,55.16,90.72,40.82,97.52,229.06,Single-ply,SBD,F,
Girls,56.02,8,Stephanie Cerda,Rio Grande City,54.79,72.57,40.82,90.72,204.12,Single-ply,SBD,F,
Girls,60.1,1,Kimberly Gonzalez,Edinburg,58.88,136.08,86.18,131.54,353.8,Single-ply,SBD,F,
Girls,60.1,2,Gisselle Cabrera,Edinburg Economedes,59.69,136.08,77.11,124.74,337.93,Single-ply,SBD,F,
Girls,60.1,3,Jesy Martinez,Edinburg,59.06,106.59,65.77,113.4,285.76,Single-ply,SBD,F,
Girls,60.1,4,Amaris Cruz,Edinburg Vela,58.97,111.13,49.9,115.67,276.69,Single-ply,SBD,F,
Girls,60.1,5,Sophia Mora,Edinburg Vela,59.33,102.06,61.23,99.79,263.08,Single-ply,SBD,F,
Girls,60.1,6,Giselle Bazan,Roma,57.33,104.33,38.56,115.67,258.55,Single-ply,SBD,F,
Girls,60.1,7,Gisela Alaniz,Rio Grande City,58.24,99.79,49.9,90.72,240.4,Single-ply,SBD,F,
Girls,60.1,8,Victoria Garza,Rio Grande City,58.24,88.45,49.9,102.06,240.4,Single-ply,SBD,F,
Girls,60.1,9,Celeste Cepeda,Rio Grande City,56.7,83.91,36.29,88.45,208.65,Single-ply,SBD,F,
Girls,60.1,DQ,Keila Hernandez,Edinburg,57.24,131.54,63.5,,,Single-ply,SBD,F,
Girls,67.36,1,Michelle Ramirez,Edinburg North,66.04,145.15,79.38,129.27,353.8,Single-ply,SBD,F,
Girls,67.36,2,Elissa Duran,Edinburg Vela,66.32,127.01,47.63,127.01,301.64,Single-ply,SBD,F,
Girls,67.36,3,Jaquelyn Rosa,Roma,66.04,102.06,56.7,102.06,260.82,Single-ply,SBD,F,
Girls,67.36,DQ,Alexis Meave,Edinburg Vela,61.96,90.72,,,,Single-ply,SBD,F,
Girls,67.36,DQ,Anahi Sosa,Edinburg Vela,60.96,,,,,Single-ply,SBD,F,
Girls,67.36,DQ,Julianne Benitez,Edinburg Vela,63.59,,,,,Single-ply,SBD,F,
Girls,67.36,DQ,Rubi Suarez,Edinburg,64.77,108.86,,,,Single-ply,SBD,F,
Girls,75.07,1,Ashley Chavez,Edinburg Economedes,71.4,161.03,86.18,129.27,376.48,Single-ply,SBD,F,
Girls,75.07,2,Zadie Flores,Edinburg Vela,69.49,129.27,58.97,133.81,322.05,Single-ply,SBD,F,
Girls,75.07,3,Valeria Estrada,Edinburg North,73.12,117.93,65.77,124.74,308.44,Single-ply,SBD,F,
Girls,75.07,4,Irma Ozuna,Edinburg Vela,69.49,129.27,68.04,102.06,299.37,Single-ply,SBD,F,
Girls,75.07,5,Valerie Garcia,Roma,72.94,127.01,49.9,108.86,285.76,Single-ply,SBD,F,
Girls,82.33,1,Sabrena Rosales,Edinburg Economedes,81.83,165.56,113.4,165.56,444.52,Single-ply,SBD,F,
Girls,82.33,2,Leslie Garcia,Edinburg Economedes,81.92,167.83,104.33,163.29,435.45,Single-ply,SBD,F,
Girls,82.33,3,Veronica Gonzalez,Edinburg Economedes,77.93,154.22,97.52,136.08,387.82,Single-ply,SBD,F,
Girls,82.33,4,Trinity Guzman,Edinburg North,77.84,131.54,74.84,120.2,326.59,Single-ply,SBD,F,
Girls,82.33,5,Mary Jo Moreno,Edinburg North,81.83,113.4,83.91,111.13,308.44,Single-ply,SBD,F,
Girls,82.33,6,Stephanie Pena,Roma,80.1,108.86,61.23,102.06,272.16,Single-ply,SBD,F,
Girls,90.04,1,Nallely Garcia,Edinburg Economedes,84.46,172.37,95.25,136.08,403.7,Single-ply,SBD,F,
Girls,90.04,2,Kayla Cox,Edinburg North,86.73,149.69,92.99,133.81,376.48,Single-ply,SBD,F,
Girls,90.04,3,Michelle Jaramillo,Edinburg,83.37,138.35,97.52,136.08,371.95,Single-ply,SBD,F,
Girls,90.04,4,Marissa Peacock,Edinburg North,89.27,120.2,79.38,117.93,317.51,Single-ply,SBD,F,
Girls,90.04,5,Linda Rodriguez,Edinburg,89.45,111.13,92.99,108.86,312.98,Single-ply,SBD,F,
Girls,90.04,6,Kimberly Garza,Rio Grande City,84.73,86.18,49.9,97.52,233.6,Single-ply,SBD,F,
Girls,100.02,1,Anahi Garcia,Edinburg Economedes,91.17,183.7,117.93,183.7,485.34,Single-ply,SBD,F,
Girls,100.02,2,Alexa Bazan,Roma,91.72,170.1,68.04,154.22,392.36,Single-ply,SBD,F,
Girls,100.02,3,Oriana Rios,Rio Grande City,98.34,72.57,49.9,99.79,222.26,Single-ply,SBD,F,
Girls,117.71,1,Juana Bolanos,Edinburg Economedes,104.69,188.24,124.74,149.69,462.66,Single-ply,SBD,F,
Girls,117.71,2,Bryana Larraga,Edinburg,109.32,165.56,120.2,147.42,433.18,Single-ply,SBD,F,
Girls,117.71,3,Laura Gonzalez,Edinburg North,111.95,145.15,77.11,142.88,365.14,Single-ply,SBD,F,
Girls,117.71,4,Kimberly Garza,Roma,105.69,142.88,56.7,129.27,328.85,Single-ply,SBD,F,
Girls,117.71+,1,RosaLynn Davila,Edinburg North,135.62,151.95,99.79,156.49,408.23,Single-ply,SBD,F,
Girls,117.71+,2,Yadhira Gloria,Edinburg,157.22,106.59,65.77,108.86,281.23,Single-ply,SBD,F,
Girls,117.71+,DQ,Victoria Lozano,Edinburg Vela,121.2,106.59,,,,Single-ply,SBD,F,
